Altitude AMSL [m],2018-11-14 13:00:00,2018-11-14 16:00:00,2018-11-14 19:00:00,2018-11-14 22:00:00,2018-11-15 01:00:00,2018-11-15 04:00:00,2018-11-15 07:00:00,2018-11-15 10:00:00,2018-11-15 13:00:00,2018-11-15 16:00:00,2018-11-15 19:00:00,2018-11-15 22:00:00,2018-11-16 01:00:00,2018-11-16 04:00:00,2018-11-16 07:00:00,2018-11-16 10:00:00,2018-11-16 13:00:00,2018-11-16 16:00:00,2018-11-16 19:00:00,2018-11-16 22:00:00,2018-11-17 01:00:00,2018-11-17 04:00:00,2018-11-17 07:00:00,2018-11-17 10:00:00,2018-11-17 13:00:00,2018-11-17 16:00:00,2018-11-17 19:00:00,2018-11-17 22:00:00,2018-11-18 01:00:00,
2.6477E+04,9.2600E+00,1.8520E+00,9.2600E+00,1.4816E+01,1.4816E+01,1.2964E+01,1.4816E+01,1.6668E+01,1.4816E+01,5.5560E+00,5.5560E+00,1.4816E+01,1.2964E+01,1.1112E+01,1.1112E+01,1.1112E+01,1.4816E+01,1.2964E+01,1.1112E+01,9.2600E+00,7.4080E+00,7.4080E+00,1.8520E+00,7.4080E+00,1.6668E+01,2.0372E+01,1.4816E+01,1.1112E+01,1.1112E+01,
2.0573E+04,2.2224E+01,2.0372E+01,1.6668E+01,1.4816E+01,1.6668E+01,1.6668E+01,1.6668E+01,1.6668E+01,1.8520E+01,1.6668E+01,1.6668E+01,1.4816E+01,1.4816E+01,1.4816E+01,9.2600E+00,5.5560E+00,1.1112E+01,1.2964E+01,1.4816E+01,1.4816E+01,1.1112E+01,1.1112E+01,7.4080E+00,9.2600E+00,1.6668E+01,1.8520E+01,1.8520E+01,1.6668E+01,1.6668E+01,
1.6177E+04,7.7784E+01,7.7784E+01,7.7784E+01,7.5932E+01,7.4080E+01,7.2228E+01,6.6672E+01,6.1116E+01,6.1116E+01,6.2968E+01,6.1116E+01,6.2968E+01,7.0376E+01,7.4080E+01,7.0376E+01,6.8524E+01,7.4080E+01,7.4080E+01,7.4080E+01,7.9636E+01,8.5192E+01,8.3340E+01,7.9636E+01,7.7784E+01,8.5192E+01,9.0748E+01,9.8156E+01,1.0001E+02,1.0186E+02,
1.3606E+04,1.1668E+02,1.1668E+02,1.1297E+02,1.1297E+02,1.1668E+02,1.1853E+02,1.1482E+02,1.1482E+02,1.1853E+02,1.2038E+02,1.2038E+02,1.2223E+02,1.2594E+02,1.2964E+02,1.2779E+02,1.2408E+02,1.2594E+02,1.2779E+02,1.2964E+02,1.3334E+02,1.3890E+02,1.3705E+02,1.3520E+02,1.3520E+02,1.4075E+02,1.4446E+02,1.4446E+02,1.5186E+02,1.5742E+02,
1.1782E+04,1.3520E+02,1.2779E+02,1.2038E+02,1.2223E+02,1.2408E+02,1.2594E+02,1.2038E+02,1.1668E+02,1.2038E+02,1.2779E+02,1.2964E+02,1.3334E+02,1.3520E+02,1.3705E+02,1.3705E+02,1.3705E+02,1.3890E+02,1.3705E+02,1.3520E+02,1.3890E+02,1.4446E+02,1.4260E+02,1.4260E+02,1.4631E+02,1.5557E+02,1.5742E+02,1.5557E+02,1.5742E+02,1.6483E+02,
1.0361E+04,1.2408E+02,1.2038E+02,1.1297E+02,1.1482E+02,1.1853E+02,1.2038E+02,1.1668E+02,1.1297E+02,1.1668E+02,1.2038E+02,1.2408E+02,1.2964E+02,1.3520E+02,1.3149E+02,1.2964E+02,1.3149E+02,1.3334E+02,1.3520E+02,1.3334E+02,1.3520E+02,1.3890E+02,1.4260E+02,1.4260E+02,1.4631E+02,1.5186E+02,1.5001E+02,1.4816E+02,1.5372E+02,1.5557E+02,
9.1626E+03,1.1482E+02,1.1112E+02,1.0556E+02,1.0371E+02,1.0556E+02,1.0556E+02,1.0371E+02,1.0742E+02,1.0927E+02,1.0556E+02,1.0927E+02,1.1482E+02,1.2038E+02,1.1853E+02,1.1668E+02,1.1482E+02,1.1853E+02,1.2223E+02,1.2223E+02,1.2779E+02,1.2964E+02,1.2964E+02,1.2779E+02,1.2594E+02,1.2779E+02,1.2779E+02,1.2779E+02,1.3149E+02,1.3520E+02,
8.1160E+03,1.1112E+02,1.0742E+02,1.0186E+02,1.0001E+02,9.8156E+01,9.6304E+01,9.4452E+01,9.6304E+01,9.8156E+01,9.8156E+01,1.0001E+02,1.0371E+02,1.0742E+02,1.0742E+02,1.0556E+02,1.0556E+02,1.0927E+02,1.1112E+02,1.1112E+02,1.1482E+02,1.1482E+02,1.1297E+02,1.0556E+02,1.0186E+02,1.0742E+02,1.0927E+02,1.1297E+02,1.1482E+02,1.1297E+02,
7.1843E+03,1.0371E+02,1.0371E+02,1.0001E+02,9.8156E+01,9.4452E+01,9.2600E+01,9.0748E+01,8.8896E+01,8.8896E+01,9.2600E+01,9.4452E+01,1.0001E+02,9.8156E+01,9.6304E+01,9.2600E+01,9.2600E+01,9.8156E+01,1.0001E+02,1.0186E+02,1.0001E+02,1.0001E+02,9.6304E+01,8.7044E+01,8.5192E+01,9.2600E+01,9.4452E+01,9.8156E+01,1.0001E+02,1.0001E+02,
6.3427E+03,9.2600E+01,9.4452E+01,9.2600E+01,9.0748E+01,8.7044E+01,8.1488E+01,7.5932E+01,7.5932E+01,8.1488E+01,8.7044E+01,9.0748E+01,9.4452E+01,9.0748E+01,8.5192E+01,7.9636E+01,7.9636E+01,8.5192E+01,8.8896E+01,8.8896E+01,8.7044E+01,8.5192E+01,7.9636E+01,7.4080E+01,7.5932E+01,8.3340E+01,8.8896E+01,8.8896E+01,8.8896E+01,9.2600E+01,
5.5736E+03,7.9636E+01,8.3340E+01,8.1488E+01,7.9636E+01,7.7784E+01,7.4080E+01,6.8524E+01,6.8524E+01,7.4080E+01,7.9636E+01,8.5192E+01,8.8896E+01,8.5192E+01,7.9636E+01,7.4080E+01,7.2228E+01,7.7784E+01,7.7784E+01,7.7784E+01,7.4080E+01,7.2228E+01,6.8524E+01,6.6672E+01,7.0376E+01,7.9636E+01,8.5192E+01,8.3340E+01,8.3340E+01,8.5192E+01,
4.8645E+03,7.4080E+01,7.4080E+01,7.0376E+01,6.8524E+01,6.8524E+01,6.8524E+01,6.1116E+01,5.9264E+01,6.6672E+01,7.2228E+01,7.4080E+01,7.9636E+01,7.7784E+01,7.5932E+01,7.2228E+01,7.0376E+01,7.5932E+01,7.4080E+01,7.0376E+01,6.6672E+01,6.6672E+01,6.4820E+01,6.4820E+01,7.0376E+01,7.9636E+01,8.3340E+01,7.7784E+01,7.7784E+01,7.9636E+01,
4.2057E+03,6.6672E+01,6.8524E+01,6.2968E+01,6.1116E+01,6.1116E+01,6.1116E+01,5.5560E+01,5.1856E+01,5.3708E+01,5.9264E+01,6.1116E+01,6.4820E+01,6.8524E+01,7.0376E+01,7.0376E+01,7.0376E+01,7.4080E+01,7.4080E+01,6.6672E+01,6.2968E+01,6.4820E+01,6.4820E+01,6.6672E+01,7.0376E+01,7.9636E+01,7.9636E+01,7.5932E+01,7.4080E+01,7.5932E+01,
3.5901E+03,5.7412E+01,5.3708E+01,5.1856E+01,5.0004E+01,5.1856E+01,5.1856E+01,4.8152E+01,4.4448E+01,4.4448E+01,4.6300E+01,5.0004E+01,5.0004E+01,5.5560E+01,6.1116E+01,6.2968E+01,6.6672E+01,6.6672E+01,5.9264E+01,5.5560E+01,5.5560E+01,6.1116E+01,6.4820E+01,6.8524E+01,7.0376E+01,6.2968E+01,5.9264E+01,6.2968E+01,6.6672E+01,6.8524E+01,
3.0117E+03,3.3336E+01,3.1484E+01,3.1484E+01,3.5188E+01,4.0744E+01,3.8892E+01,3.7040E+01,3.7040E+01,3.1484E+01,3.3336E+01,3.7040E+01,4.0744E+01,4.4448E+01,4.8152E+01,4.6300E+01,5.0004E+01,4.0744E+01,3.8892E+01,3.7040E+01,4.2596E+01,4.8152E+01,5.3708E+01,5.5560E+01,5.5560E+01,4.4448E+01,4.0744E+01,3.8892E+01,4.4448E+01,5.0004E+01,
2.4659E+03,2.4076E+01,2.5928E+01,2.7780E+01,2.9632E+01,2.9632E+01,2.7780E+01,2.4076E+01,2.2224E+01,2.4076E+01,2.5928E+01,2.7780E+01,2.9632E+01,3.1484E+01,3.1484E+01,2.9632E+01,2.5928E+01,2.9632E+01,2.9632E+01,2.9632E+01,3.1484E+01,3.3336E+01,3.3336E+01,3.3336E+01,2.7780E+01,3.3336E+01,3.3336E+01,3.1484E+01,3.3336E+01,3.7040E+01,
1.9488E+03,1.8520E+01,2.0372E+01,2.0372E+01,1.8520E+01,1.8520E+01,1.2964E+01,1.2964E+01,1.4816E+01,2.0372E+01,2.0372E+01,2.0372E+01,1.8520E+01,1.8520E+01,1.4816E+01,1.4816E+01,1.6668E+01,2.4076E+01,2.2224E+01,2.2224E+01,1.8520E+01,1.6668E+01,1.4816E+01,1.4816E+01,1.8520E+01,2.5928E+01,2.4076E+01,2.4076E+01,2.2224E+01,1.8520E+01,
1.4572E+03,1.6668E+01,1.4816E+01,9.2600E+00,9.2600E+00,7.4080E+00,5.5560E+00,5.5560E+00,1.1112E+01,1.6668E+01,1.2964E+01,9.2600E+00,7.4080E+00,5.5560E+00,5.5560E+00,5.5560E+00,1.2964E+01,2.0372E+01,1.4816E+01,9.2600E+00,7.4080E+00,5.5560E+00,5.5560E+00,3.7040E+00,1.2964E+01,2.2224E+01,1.6668E+01,9.2600E+00,7.4080E+00,7.4080E+00,
9.8837E+02,1.6668E+01,1.2964E+01,9.2600E+00,7.4080E+00,5.5560E+00,5.5560E+00,3.7040E+00,1.1112E+01,1.6668E+01,1.2964E+01,7.4080E+00,5.5560E+00,5.5560E+00,5.5560E+00,5.5560E+00,1.2964E+01,1.8520E+01,1.4816E+01,7.4080E+00,5.5560E+00,5.5560E+00,3.7040E+00,3.7040E+00,1.2964E+01,2.2224E+01,1.4816E+01,9.2600E+00,5.5560E+00,5.5560E+00,
7.6194E+02,1.6668E+01,1.2964E+01,9.2600E+00,7.4080E+00,5.5560E+00,5.5560E+00,3.7040E+00,1.1112E+01,1.6668E+01,1.2964E+01,7.4080E+00,5.5560E+00,5.5560E+00,5.5560E+00,5.5560E+00,1.2964E+01,1.8520E+01,1.4816E+01,7.4080E+00,5.5560E+00,5.5560E+00,3.7040E+00,3.7040E+00,1.2964E+01,2.2224E+01,1.4816E+01,9.2600E+00,7.4080E+00,5.5560E+00,
5.4036E+02,1.6668E+01,1.2964E+01,9.2600E+00,7.4080E+00,5.5560E+00,5.5560E+00,3.7040E+00,1.1112E+01,1.6668E+01,1.2964E+01,7.4080E+00,5.5560E+00,5.5560E+00,5.5560E+00,5.5560E+00,1.2964E+01,1.8520E+01,1.4816E+01,7.4080E+00,5.5560E+00,5.5560E+00,3.7040E+00,3.7040E+00,1.2964E+01,2.2224E+01,1.4816E+01,9.2600E+00,7.4080E+00,5.5560E+00,
3.2341E+02,1.6668E+01,1.2964E+01,9.2600E+00,7.4080E+00,5.5560E+00,5.5560E+00,3.7040E+00,1.1112E+01,1.6668E+01,1.2964E+01,7.4080E+00,5.5560E+00,5.5560E+00,5.5560E+00,5.5560E+00,1.2964E+01,1.8520E+01,1.4816E+01,7.4080E+00,5.5560E+00,5.5560E+00,3.7040E+00,3.7040E+00,1.2964E+01,2.2224E+01,1.4816E+01,7.4080E+00,7.4080E+00,5.5560E+00,
1.1091E+02,1.6668E+01,1.2964E+01,9.2600E+00,7.4080E+00,5.5560E+00,5.5560E+00,3.7040E+00,1.1112E+01,1.6668E+01,1.2964E+01,7.4080E+00,5.5560E+00,5.5560E+00,5.5560E+00,5.5560E+00,1.2964E+01,1.8520E+01,1.4816E+01,7.4080E+00,5.5560E+00,3.7040E+00,3.7040E+00,3.7040E+00,1.2964E+01,2.0372E+01,1.4816E+01,7.4080E+00,5.5560E+00,5.5560E+00,
